<?xml version="1.0"?>
<robot xmlns:xacro="http://www.ros.org/wiki/xacro" name="platform">

    <!-- FILES INCLUDED -->

    <xacro:property name="use_mesh" value="true"/>
    <xacro:property name="use_lidar_ray" value="false"/>

    <xacro:include filename="$(find kalman_simulation_model)/urdf/kalman/0_utils/000_utils.xacro"/>
    <xacro:include filename="$(find kalman_simulation_model)/urdf/kalman/1_body/100_body.xacro"/>
    <xacro:include filename="$(find kalman_simulation_model)/urdf/kalman/2_suspension/200_suspension.xacro"/>


</robot>
