<?xml version="1.0"?>
<robot xmlns:xacro="http://www.ros.org/wiki/xacro" name="platform">

    <xacro:macro name="grip_0" params="parent name rpy xyz axis low_limit high_limit effort velocity friction damping" >

        <!-- LINK -->
        <xacro:macro name="grip_0_geo_1">
            <origin rpy="-0.49 0 0" xyz="0 -0.0036 0.133"/>
            <geometry>
                <box size="0.05 0.03 0.002"/>
            </geometry>
        </xacro:macro>

        <xacro:macro name="grip_0_geo_2">
            <origin rpy="0 0 0" xyz="0.025 0 0.11"/>
            <geometry>
                <box size="0.002 0.034 0.06"/>
            </geometry>
        </xacro:macro>

        <xacro:macro name="grip_0_geo_3">
            <origin rpy="0 0 0" xyz="-0.025 0 0.11"/>
            <geometry>
                <box size="0.002 0.034 0.06"/>
            </geometry>
        </xacro:macro>

        <xacro:macro name="grip_0_mesh">
            <origin rpy="0 -1.57075 0" xyz="0 0 0"/>
            <geometry>
                <mesh filename="package://kalman_simulation_model/urdf/kalman/mesh/306_grip_0.STL" scale="0.001 0.001 0.001"/>
            </geometry>
        </xacro:macro>

        <xacro:macro name="grip_0_color">
            <material name="black">
                <color rgba=".1 .1 .1 1"/>
            </material>
        </xacro:macro>


        <link name="${name}">
            <xacro:if value="${use_mesh == 'true'}">
                <visual>
                    <xacro:grip_0_mesh/>
                    <xacro:grip_0_color/>
                </visual>
            </xacro:if>

            <xacro:if value="${use_mesh == 'false'}">
                <visual>
                    <xacro:grip_0_geo_1/>
                    <xacro:grip_0_color/>
                </visual>

                <visual>
                    <xacro:grip_0_geo_2/>
                    <xacro:grip_0_color/>
                </visual>

                <visual>
                    <xacro:grip_0_geo_3/>
                    <xacro:grip_0_color/>
                </visual>
            </xacro:if>

            <collision>
                <xacro:grip_0_geo_1/>
            </collision>

            <collision>
                <xacro:grip_0_geo_2/>
            </collision>

            <collision>
                <xacro:grip_0_geo_3/>
            </collision>

            <xacro:cylinder_inertial radius="0.03" length="0.2" mass="0.1">
                <origin rpy="0 0 0" xyz="0 0 0.1"/>
            </xacro:cylinder_inertial>

        </link>
        <gazebo reference="${name}">
            <mu1> .2 </mu1>
            <mu2> .2 </mu2>
            <material> Gazebo/White </material>
            <selfCollide>False</selfCollide>
        </gazebo>

        <!-- JOINT -->
        <joint name="${name}_joint" type="revolute">
            <parent link="${parent}"/>
            <child link="${name}"/>
            <origin rpy="${rpy}" xyz="${xyz}"/>
            <axis xyz="${axis}"/>
            <limit effort="${effort}" velocity="${velocity}" lower="${low_limit}" upper="${high_limit}"/>
            <dynamics friction="${friction}" damping="${damping}"/>
        </joint>
        <gazebo reference="${name}_joint">
            <stopCfm>0.8</stopCfm>
            <stopErp>0.1</stopErp>
            <provideFeedback>true</provideFeedback>
            <implicitSpringDamper>true</implicitSpringDamper>
            <fudgeFactor>0.0</fudgeFactor>
        </gazebo>

        <transmission name="${name}_transmission">
            <type>transmission_interface/SimpleTransmission</type>
            <joint name="${name}_joint">
                <hardwareInterface>hardware_interface/EffortJointInterface</hardwareInterface>
            </joint>
            <actuator name="${name}_motor">
                <hardwareInterface>hardware_interface/EffortJointInterface</hardwareInterface>
                <mechanicalReduction>1</mechanicalReduction>
            </actuator>
        </transmission>

        <!-- ENCODER -->
        <gazebo>
            <plugin name="${name}_encoder" filename="libJointEncoder.so">
                <joint>${name}_joint</joint>
                <topic>/kalman/simulation/encoder/${name}_abs</topic>
                <absolute>1</absolute>
                <resolution>3600</resolution>
            </plugin>
        </gazebo>

    </xacro:macro>
</robot>
